Tidy up your models
…
---

<img src="images/painting1.png" width="65%" style="display: block; margin: auto;" /><img src="images/painting2.png" width="65%" style="display: block; margin: auto;" /><img src="images/painting3.png" width="65%" style="display: block; margin: auto;" />

---

## Minor detail: load data

```r
pp <- read_csv("data/paris-paintings.csv", na = c("n/a", "", "NA"))
pp
```

```
## # A tibble: 3,393 x 61
##   name     sale  lot   position dealer  year origin_author
##   <chr>    <chr> <chr>    <dbl> <chr>  <dbl> <chr>        
## 1 L1764-2  L1764 2       0.0328 L       1764 F            
## 2 L1764-3  L1764 3       0.0492 L       1764 I            
## 3 L1764-4  L1764 4       0.0656 L       1764 X            
## 4 L1764-5a L1764 5       0.0820 L       1764 F            
## 5 L1764-5b L1764 5       0.0820 L       1764 F            
## 6 L1764-6  L1764 6       0.0984 L       1764 X            
## # … with 3,387 more rows, and 54 more variables:
## #   origin_cat <chr>, school_pntg <chr>,
## #   diff_origin <dbl>, logprice <dbl>, price <dbl>,
## #   count <dbl>, subject <chr>, authorstandard <chr>,
## #   artistliving <dbl>, authorstyle <chr>, author <chr>,
## #   winningbidder <chr>, winningbiddertype <chr>,
…
**They're not exactly the same!**

.pull-left[
Base R fit + `glance()`:

.small[

```r
base_lm_aug <- augment(base_lm)
base_lm_aug
```

```
## # A tibble: 3,135 x 9
##   .rownames Height_in Width_in .fitted .resid     .hat
##   <chr>         <dbl>    <dbl>   <dbl>  <dbl>    <dbl>
## 1 1                37     29.5    26.7  10.3  0.000399
## 2 2                18     14      14.6   3.45 0.000396
## 3 3                13     16      16.1  -3.11 0.000361
## 4 4                14     18      17.7  -3.68 0.000337
## 5 5                14     18      17.7  -3.68 0.000337
## 6 6                 7     10      11.4  -4.43 0.000498
## # … with 3,129 more rows, and 3 more variables:
## #   .sigma <dbl>, .cooksd <dbl>, .std.resid <dbl>
```
]]

.pull-right[
Tidymodels fit + `augment()`:

.small[

```r
tidy_lm_aug <- augment(tidy_lm$fit)
tidy_lm_aug
```

```
## # A tibble: 3,135 x 9
##   .rownames Height_in Width_in .fitted .resid     .hat
##   <chr>         <dbl>    <dbl>   <dbl>  <dbl>    <dbl>
## 1 1                37     29.5    26.7  10.3  0.000399
## 2 2                18     14      14.6   3.45 0.000396
## 3 3                13     16      16.1  -3.11 0.000361
## 4 4                14     18      17.7  -3.68 0.000337
## 5 5                14     18      17.7  -3.68 0.000337
## 6 6                 7     10      11.4  -4.43 0.000498
## # … with 3,129 more rows, and 3 more variables:
## #   .sigma <dbl>, .cooksd <dbl>, .std.resid <dbl>
```
…
