…
## Load packages

``` r
library(openintro)
library(tidyverse)
library(tidymodels)
```

## Take a peek at the data

``` r
email
```

    ## # A tibble: 3,921 x 21
    ##    spam  to_multiple from     cc sent_email time                image attach
    ##    <fct> <fct>       <fct> <int> <fct>      <dttm>              <dbl>  <dbl>
    ##  1 0     0           1         0 0          2012-01-01 01:16:41     0      0
    ##  2 0     0           1         0 0          2012-01-01 02:03:59     0      0
    ##  3 0     0           1         0 0          2012-01-01 11:00:32     0      0
    ##  4 0     0           1         0 0          2012-01-01 04:09:49     0      0
    ##  5 0     0           1         0 0          2012-01-01 05:00:01     0      0
    ##  6 0     0           1         0 0          2012-01-01 05:04:46     0      0
    ##  7 0     1           1         0 1          2012-01-01 12:55:06     0      0
    ##  8 0     1           1         1 1          2012-01-01 13:45:21     1      1
    ##  9 0     0           1         0 0          2012-01-01 16:08:59     0      0
    ## 10 0     0           1         0 0          2012-01-01 13:12:00     0      0
    ## # … with 3,911 more rows, and 13 more variables: dollar <dbl>, winner <fct>,
    ## #   inherit <dbl>, viagra <dbl>, password <dbl>, num_char <dbl>,
    ## #   line_breaks <int>, format <fct>, re_subj <fct>, exclaim_subj <dbl>,
    ## #   urgent_subj <fct>, exclaim_mess <dbl>, number <fct>
…
## Initiate a recipe

``` r
email_rec <- recipe(
  spam ~ .,          # formula
  data = train_data  # data to use for cataloguing names and types of variables
  )

summary(email_rec)
```

    ## # A tibble: 21 x 4
    ##    variable    type    role      source  
    ##    <chr>       <chr>   <chr>     <chr>   
    ##  1 to_multiple nominal predictor original
    ##  2 from        nominal predictor original
    ##  3 cc          numeric predictor original
    ##  4 sent_email  nominal predictor original
    ##  5 time        date    predictor original
    ##  6 image       numeric predictor original
    ##  7 attach      numeric predictor original
    ##  8 dollar      numeric predictor original
    ##  9 winner      nominal predictor original
    ## 10 inherit     numeric predictor original
    ## # … with 11 more rows
…
## Fit model to training data

``` r
email_fit <- email_wflow %>% 
  fit(data = train_data)

tidy(email_fit)
```

    ## # A tibble: 31 x 5
    ##    term           estimate std.error statistic  p.value
    ##    <chr>             <dbl>     <dbl>     <dbl>    <dbl>
    ##  1 (Intercept)    -0.892     0.249     -3.58   3.37e- 4
    ##  2 image          -1.65      0.934     -1.76   7.77e- 2
    ##  3 viagra          2.28    182.         0.0125 9.90e- 1
    ##  4 num_char        0.0470    0.0244     1.93   5.36e- 2
    ##  5 line_breaks    -0.00510   0.00138   -3.69   2.28e- 4
    ##  6 exclaim_subj   -0.204     0.277     -0.736  4.62e- 1
    ##  7 exclaim_mess    0.00885   0.00186    4.75   1.99e- 6
    ##  8 to_multiple_X1 -2.60      0.354     -7.35   2.06e-13
    ##  9 cc_X.1.68.     -0.312     0.490     -0.638  5.24e- 1
    ## 10 attach_X.1.21.  2.05      0.368      5.58   2.45e- 8
    ## # … with 21 more rows

## Make predictions for test data

``` r
email_pred <- predict(email_fit, test_data, type = "prob") %>% 
  bind_cols(test_data) 
```

    ## Warning: There are new levels in a factor: NA

``` r
email_pred
```

    ## # A tibble: 785 x 23
    ##    .pred_0  .pred_1 spam  to_multiple from     cc sent_email time               
    ##      <dbl>    <dbl> <fct> <fct>       <fct> <int> <fct>      <dttm>             
    ##  1   0.995 0.00470  0     1           1         0 1          2012-01-01 12:55:06
    ##  2   0.999 0.00134  0     0           1         1 1          2012-01-01 14:38:32
    ##  3   0.967 0.0328   0     0           1         0 0          2012-01-02 00:42:16
    ##  4   0.999 0.000776 0     0           1         1 0          2012-01-02 10:12:51
    ##  5   0.994 0.00642  0     0           1         4 0          2012-01-02 11:45:36
    ##  6   0.860 0.140    0     0           1         0 0          2012-01-02 16:55:03
    ##  7   0.970 0.0296   0     0           1         0 0          2012-01-02 20:07:17
    ##  8   0.773 0.227    0     0           1         0 0          2012-01-03 00:41:35
    ##  9   0.936 0.0643   0     0           1         0 0          2012-01-03 11:02:35
    ## 10   0.809 0.191    0     0           1         0 0          2012-01-03 06:14:51
    ## # … with 775 more rows, and 15 more variables: image <dbl>, attach <dbl>,
    ## #   dollar <dbl>, winner <fct>, inherit <dbl>, viagra <dbl>, password <dbl>,
    ## #   num_char <dbl>, line_breaks <int>, format <fct>, re_subj <fct>,
    ## #   exclaim_subj <dbl>, urgent_subj <fct>, exclaim_mess <dbl>, number <fct>
…
